Mundial de natación de Kazán 2015
…
prueba800libresPreliminar<- datos2015[datos2015$distance==800 & datos2015$gender=="F" & datos2015$stroke=="FREE" & datos2015$round=="PRE", ]

prueba800libresPreliminar <- prueba800libresPreliminar %>%
    select(lastname,firstname,gender, reactiontime, splitdistance, splitswimtime, edad, swimtime)

Bien, ahora, debemos encontrar la manera de crear una tabla en la que
nos quedemos con el nombre, apellido y parciales

pruebawide <- prueba800libresPreliminar %>%
  pivot_wider(names_from = splitdistance,       # Los valores de 'Split' serán los nombres de las columnas
              values_from =splitswimtime)     # Los valores de 'Tiempo' llenarán las celdas
pruebawide

## # A tibble: 44 × 22
##    lastname firstname gender reactiontime  edad swimtime  `50` `100` `150` `200`
##    <chr>    <chr>     <fct>         <dbl> <dbl>    <dbl> <dbl> <dbl> <dbl> <dbl>
##  1 HOLOWCH… MAKAELA   F              0.71    14     578.  32.4  35.9  35.0  36.4
##  2 VAN DEN… DANIELLA  F              0.79    19     544.  31.6  33.9  34.1  34.2
##  3 ASHWOOD  JESSICA   F              0.78    22     502.  29.2  31.4  31.8  31.9
##  4 NEALE    LEAH      F              0.73    20     524.  29.5  32.5  33.2  32.9
##  5 EVANS    JOANNA    F              0.79    18     530.  30    32.3  33.0  32.8
##  6 GILL     HANNAH L… F              0.9     16     556.  31.2  34.5  34.6  34.6
##  7 KOBRICH  KRISTEL   F              0.81    30     513.  30.3  31.9  32.2  32.2
##  8 ZHANG    YUHAN     F              0.72    20     515.  29.6  31.8  32.4  32.1
##  9 CAO      YUE       F              0.82    19     523.  29.6  32.6  32.7  32.5
## 10 TE FLAN  TALITA    F              0.84    20     557.  30.4  34.3  33.8  34.9
## # ℹ 34 more rows
## # ℹ 12 more variables: `250` <dbl>, `300` <dbl>, `350` <dbl>, `400` <dbl>,
## #   `450` <dbl>, `500` <dbl>, `550` <dbl>, `600` <dbl>, `650` <dbl>,
## #   `700` <dbl>, `750` <dbl>, `800` <dbl>
…
